%YAML 1.1
%TAG !u! tag:unity3d.com,2011:
--- !u!74 &7400000
AnimationClip:
  m_ObjectHideFlags: 0
  m_CorrespondingSourceObject: {fileID: 0}
  m_PrefabInternal: {fileID: 0}
  m_Name: DinoJump
  serializedVersion: 6
  m_Legacy: 0
  m_Compressed: 0
  m_UseHighQualityCurve: 1
  m_RotationCurves: []
  m_CompressedRotationCurves: []
  m_EulerCurves: []
  m_PositionCurves: []
  m_ScaleCurves: []
  m_FloatCurves: []
  m_PPtrCurves:
  - curve:
    - time: 0
      value: {fileID: 21300000, guid: 5925515b3536e52479b4a7361c5809d2, type: 3}
    - time: 0.033333335
      value: {fileID: 21300000, guid: 2dcb1616a64368b4ba5c38c514ce1e1d, type: 3}
    - time: 0.06666667
      value: {fileID: 21300000, guid: 1b77dabfee13bc644a8b917508fd401f, type: 3}
    - time: 0.1
      value: {fileID: 21300000, guid: f827d18a2b8d1fd4abccb46fe6a78369, type: 3}
    - time: 0.13333334
      value: {fileID: 21300000, guid: 487cd13134425a4418f7c6b2c55e5743, type: 3}
    - time: 0.16666667
      value: {fileID: 21300000, guid: 506cdbb067e67d0408d5a1b39d7dce9e, type: 3}
    - time: 0.2
      value: {fileID: 21300000, guid: d5e23da3c350ec341a1868bb55a7e322, type: 3}
    - time: 0.23333333
      value: {fileID: 21300000, guid: d0eac5a2aef7e4e4bb6b1358383486eb, type: 3}
    - time: 0.26666668
      value: {fileID: 21300000, guid: 04c16bebd93541e40bfe54eca8ce5f8a, type: 3}
    attribute: m_Sprite
    path: 
    classID: 212
    script: {fileID: 0}
  m_SampleRate: 30
  m_WrapMode: 0
  m_Bounds:
    m_Center: {x: 0, y: 0, z: 0}
    m_Extent: {x: 0, y: 0, z: 0}
  m_ClipBindingConstant:
    genericBindings:
    - serializedVersion: 2
      path: 0
      attribute: 0
      script: {fileID: 0}
      typeID: 212
      customType: 23
      isPPtrCurve: 1
    pptrCurveMapping:
    - {fileID: 21300000, guid: 5925515b3536e52479b4a7361c5809d2, type: 3}
    - {fileID: 21300000, guid: 2dcb1616a64368b4ba5c38c514ce1e1d, type: 3}
    - {fileID: 21300000, guid: 1b77dabfee13bc644a8b917508fd401f, type: 3}
    - {fileID: 21300000, guid: f827d18a2b8d1fd4abccb46fe6a78369, type: 3}
    - {fileID: 21300000, guid: 487cd13134425a4418f7c6b2c55e5743, type: 3}
    - {fileID: 21300000, guid: 506cdbb067e67d0408d5a1b39d7dce9e, type: 3}
    - {fileID: 21300000, guid: d5e23da3c350ec341a1868bb55a7e322, type: 3}
    - {fileID: 21300000, guid: d0eac5a2aef7e4e4bb6b1358383486eb, type: 3}
    - {fileID: 21300000, guid: 04c16bebd93541e40bfe54eca8ce5f8a, type: 3}
  m_AnimationClipSettings:
    serializedVersion: 2
    m_AdditiveReferencePoseClip: {fileID: 0}
    m_AdditiveReferencePoseTime: 0
    m_StartTime: 0
    m_StopTime: 0.3
    m_OrientationOffsetY: 0
    m_Level: 0
    m_CycleOffset: 0
    m_HasAdditiveReferencePose: 0
    m_LoopTime: 1
    m_LoopBlend: 0
    m_LoopBlendOrientation: 0
    m_LoopBlendPositionY: 0
    m_LoopBlendPositionXZ: 0
    m_KeepOriginalOrientation: 0
    m_KeepOriginalPositionY: 1
    m_KeepOriginalPositionXZ: 0
    m_HeightFromFeet: 0
    m_Mirror: 0
  m_EditorCurves: []
  m_EulerEditorCurves: []
  m_HasGenericRootTransform: 0
  m_HasMotionFloatCurves: 0
  m_GenerateMotionCurves: 0
  m_Events: []
